{
  "expression": "\\/api\\/invoices",
  "method": "GET",
  "isArray": false,
  "responses": {
    "default": {
      "default": true,
      "status": 200,
      "data": {
        "invoices": [
          {
            "id": "386e3dad-9a50-11e8-a137-0a580add1c0a",
            "creationDate": "2018-08-07T14:43:16.961+0000",
            "invoiceDate": "2018-09-07T14:43:16.961+0000",
            "invoiceNumber": "2018-0059",
            "totalAmount": "121.00",
            "taxAmount": "21.00",
            "amount": "100.00",
            "invoiceLines": [
              {
                "id": "236e3dad-9a50-11e8-a137-0a580add1c0a",
                "qty": "1.00",
                "description": "Apple iPhone 8",
                "amount": "100",
                "taxAmount": "21.00",
                "taxId": "1",
                "ledgerId": "1"
              },
              {
                "id": "2236e3dad-9a50-11e8-a137-0a580add1c0a",
                "qty": "1.00",
                "description": "Apple iPhone X",
                "amount": "100",
                "taxAmount": "21.00",
                "taxId": "1",
                "ledgerId": "1"
              }
            ],
            "relation": {
              "id": "655e3dad-9a50-11e8-a137-0a580add1c0a",
              "name": "S.B.C. Management",
              "address": "Patrijsstraat 13",
              "zip": "3245 VK",
              "city": "Sommelsdijk"
            }
          },
          {
            "id": "654e3dad-9a50-11e8-a137-0a580add1c0a",
            "creationDate": "2018-08-07T14:43:16.961+0000",
            "invoiceDate": "2018-09-07T14:43:16.961+0000",
            "invoiceNumber": "2018-0061",
            "totalAmount": "242.00",
            "taxAmount": "42.00",
            "amount": "200.00",
            "invoiceLines": [
              {
                "id": "666e3dad-9a50-11e8-a137-0a580add1c0a",
                "qty": "1.00",
                "description": "Samsung Galaxy",
                "amount": "100",
                "taxAmount": "21.00",
                "taxId": "1",
                "ledgerId": "1"
              },
              {
                "id": "9936e3dad-9a50-11e8-a137-0a580add1c0a",
                "qty": "1.00",
                "description": "Sony Experia",
                "amount": "100",
                "taxAmount": "21.00",
                "taxId": "1",
                "ledgerId": "1"
              }
            ],
            "relation": {
              "id": "665e3dad-9a50-11e8-a137-0a580add1c0a",
              "name": "Kees Kist",
              "address": "Nachtijs 4",
              "zip": "3245 VL",
              "city": "Sommelsdijk"
            }
          },
          {
            "id": "654e3dad-9a50-11e8-a137-0a580add1c0a",
            "creationDate": "2018-08-07T14:43:16.961+0000",
            "invoiceDate": "2018-09-07T14:43:16.961+0000",
            "invoiceNumber": "2018-0061",
            "totalAmount": "242.00",
            "taxAmount": "42.00",
            "amount": "200.00",
            "invoiceLines": [
              {
                "id": "666e3dad-9a50-11e8-a137-0a580add1c0a",
                "qty": "1.00",
                "description": "Samsung Galaxy",
                "amount": "100",
                "taxAmount": "21.00",
                "taxId": "1",
                "ledgerId": "1"
              },
              {
                "id": "9936e3dad-9a50-11e8-a137-0a580add1c0a",
                "qty": "1.00",
                "description": "Sony Experia",
                "amount": "100",
                "taxAmount": "21.00",
                "taxId": "1",
                "ledgerId": "1"
              }
            ],
            "relation": {
              "id": "665e3dad-9a50-11e8-a137-0a580add1c0a",
              "name": "Kees Kist",
              "address": "Nachtijs 4",
              "zip": "3245 VL",
              "city": "Sommelsdijk"
            }
          },
          {
            "id": "654e3dad-9a50-11e8-a137-0a580add1c0a",
            "creationDate": "2018-08-07T14:43:16.961+0000",
            "invoiceDate": "2018-09-07T14:43:16.961+0000",
            "invoiceNumber": "2018-0061",
            "totalAmount": "242.00",
            "taxAmount": "42.00",
            "amount": "200.00",
            "invoiceLines": [
              {
                "id": "666e3dad-9a50-11e8-a137-0a580add1c0a",
                "qty": "1.00",
                "description": "Samsung Galaxy",
                "amount": "100",
                "taxAmount": "21.00",
                "taxId": "1",
                "ledgerId": "1"
              },
              {
                "id": "9936e3dad-9a50-11e8-a137-0a580add1c0a",
                "qty": "1.00",
                "description": "Sony Experia",
                "amount": "100",
                "taxAmount": "21.00",
                "taxId": "1",
                "ledgerId": "1"
              }
            ],
            "relation": {
              "id": "665e3dad-9a50-11e8-a137-0a580add1c0a",
              "name": "Kees Kist",
              "address": "Nachtijs 4",
              "zip": "3245 VL",
              "city": "Sommelsdijk"
            }
          },
          {
            "id": "654e3dad-9a50-11e8-a137-0a580add1c0a",
            "creationDate": "2018-08-07T14:43:16.961+0000",
            "invoiceDate": "2018-09-07T14:43:16.961+0000",
            "invoiceNumber": "2018-0061",
            "totalAmount": "242.00",
            "taxAmount": "42.00",
            "amount": "200.00",
            "invoiceLines": [
              {
                "id": "666e3dad-9a50-11e8-a137-0a580add1c0a",
                "qty": "1.00",
                "description": "Samsung Galaxy",
                "amount": "100",
                "taxAmount": "21.00",
                "taxId": "1",
                "ledgerId": "1"
              },
              {
                "id": "9936e3dad-9a50-11e8-a137-0a580add1c0a",
                "qty": "1.00",
                "description": "Sony Experia",
                "amount": "100",
                "taxAmount": "21.00",
                "taxId": "1",
                "ledgerId": "1"
              }
            ],
            "relation": {
              "id": "665e3dad-9a50-11e8-a137-0a580add1c0a",
              "name": "Kees Kist",
              "address": "Nachtijs 4",
              "zip": "3245 VL",
              "city": "Sommelsdijk"
            }
          },
          {
            "id": "654e3dad-9a50-11e8-a137-0a580add1c0a",
            "creationDate": "2018-08-07T14:43:16.961+0000",
            "invoiceDate": "2018-09-07T14:43:16.961+0000",
            "invoiceNumber": "2018-0061",
            "totalAmount": "242.00",
            "taxAmount": "42.00",
            "amount": "200.00",
            "invoiceLines": [
              {
                "id": "666e3dad-9a50-11e8-a137-0a580add1c0a",
                "qty": "1.00",
                "description": "Samsung Galaxy",
                "amount": "100",
                "taxAmount": "21.00",
                "taxId": "1",
                "ledgerId": "1"
              },
              {
                "id": "9936e3dad-9a50-11e8-a137-0a580add1c0a",
                "qty": "1.00",
                "description": "Sony Experia",
                "amount": "100",
                "taxAmount": "21.00",
                "taxId": "1",
                "ledgerId": "1"
              }
            ],
            "relation": {
              "id": "665e3dad-9a50-11e8-a137-0a580add1c0a",
              "name": "Kees Kist",
              "address": "Nachtijs 4",
              "zip": "3245 VL",
              "city": "Sommelsdijk"
            }
          },
          {
            "id": "654e3dad-9a50-11e8-a137-0a580add1c0a",
            "creationDate": "2018-08-07T14:43:16.961+0000",
            "invoiceDate": "2018-09-07T14:43:16.961+0000",
            "invoiceNumber": "2018-0061",
            "totalAmount": "242.00",
            "taxAmount": "42.00",
            "amount": "200.00",
            "invoiceLines": [
              {
                "id": "666e3dad-9a50-11e8-a137-0a580add1c0a",
                "qty": "1.00",
                "description": "Samsung Galaxy",
                "amount": "100",
                "taxAmount": "21.00",
                "taxId": "1",
                "ledgerId": "1"
              },
              {
                "id": "9936e3dad-9a50-11e8-a137-0a580add1c0a",
                "qty": "1.00",
                "description": "Sony Experia",
                "amount": "100",
                "taxAmount": "21.00",
                "taxId": "1",
                "ledgerId": "1"
              }
            ],
            "relation": {
              "id": "665e3dad-9a50-11e8-a137-0a580add1c0a",
              "name": "Kees Kist",
              "address": "Nachtijs 4",
              "zip": "3245 VL",
              "city": "Sommelsdijk"
            }
          },
          {
            "id": "654e3dad-9a50-11e8-a137-0a580add1c0a",
            "creationDate": "2018-08-07T14:43:16.961+0000",
            "invoiceDate": "2018-09-07T14:43:16.961+0000",
            "invoiceNumber": "2018-0061",
            "totalAmount": "242.00",
            "taxAmount": "42.00",
            "amount": "200.00",
            "invoiceLines": [
              {
                "id": "666e3dad-9a50-11e8-a137-0a580add1c0a",
                "qty": "1.00",
                "description": "Samsung Galaxy",
                "amount": "100",
                "taxAmount": "21.00",
                "taxId": "1",
                "ledgerId": "1"
              },
              {
                "id": "9936e3dad-9a50-11e8-a137-0a580add1c0a",
                "qty": "1.00",
                "description": "Sony Experia",
                "amount": "100",
                "taxAmount": "21.00",
                "taxId": "1",
                "ledgerId": "1"
              }
            ],
            "relation": {
              "id": "665e3dad-9a50-11e8-a137-0a580add1c0a",
              "name": "Kees Kist",
              "address": "Nachtijs 4",
              "zip": "3245 VL",
              "city": "Sommelsdijk"
            }
          },
          {
            "id": "654e3dad-9a50-11e8-a137-0a580add1c0a",
            "creationDate": "2018-08-07T14:43:16.961+0000",
            "invoiceDate": "2018-09-07T14:43:16.961+0000",
            "invoiceNumber": "2018-0061",
            "totalAmount": "242.00",
            "taxAmount": "42.00",
            "amount": "200.00",
            "invoiceLines": [
              {
                "id": "666e3dad-9a50-11e8-a137-0a580add1c0a",
                "qty": "1.00",
                "description": "Samsung Galaxy",
                "amount": "100",
                "taxAmount": "21.00",
                "taxId": "1",
                "ledgerId": "1"
              },
              {
                "id": "9936e3dad-9a50-11e8-a137-0a580add1c0a",
                "qty": "1.00",
                "description": "Sony Experia",
                "amount": "100",
                "taxAmount": "21.00",
                "taxId": "1",
                "ledgerId": "1"
              }
            ],
            "relation": {
              "id": "665e3dad-9a50-11e8-a137-0a580add1c0a",
              "name": "Kees Kist",
              "address": "Nachtijs 4",
              "zip": "3245 VL",
              "city": "Sommelsdijk"
            }
          },
          {
            "id": "654e3dad-9a50-11e8-a137-0a580add1c0a",
            "creationDate": "2018-08-07T14:43:16.961+0000",
            "invoiceDate": "2018-09-07T14:43:16.961+0000",
            "invoiceNumber": "2018-0061",
            "totalAmount": "242.00",
            "taxAmount": "42.00",
            "amount": "200.00",
            "invoiceLines": [
              {
                "id": "666e3dad-9a50-11e8-a137-0a580add1c0a",
                "qty": "1.00",
                "description": "Samsung Galaxy",
                "amount": "100",
                "taxAmount": "21.00",
                "taxId": "1",
                "ledgerId": "1"
              },
              {
                "id": "9936e3dad-9a50-11e8-a137-0a580add1c0a",
                "qty": "1.00",
                "description": "Sony Experia",
                "amount": "100",
                "taxAmount": "21.00",
                "taxId": "1",
                "ledgerId": "1"
              }
            ],
            "relation": {
              "id": "665e3dad-9a50-11e8-a137-0a580add1c0a",
              "name": "Kees Kist",
              "address": "Nachtijs 4",
              "zip": "3245 VL",
              "city": "Sommelsdijk"
            }
          },
          {
            "id": "654e3dad-9a50-11e8-a137-0a580add1c0a",
            "creationDate": "2018-08-07T14:43:16.961+0000",
            "invoiceDate": "2018-09-07T14:43:16.961+0000",
            "invoiceNumber": "2018-0061",
            "totalAmount": "242.00",
            "taxAmount": "42.00",
            "amount": "200.00",
            "invoiceLines": [
              {
                "id": "666e3dad-9a50-11e8-a137-0a580add1c0a",
                "qty": "1.00",
                "description": "Samsung Galaxy",
                "amount": "100",
                "taxAmount": "21.00",
                "taxId": "1",
                "ledgerId": "1"
              },
              {
                "id": "9936e3dad-9a50-11e8-a137-0a580add1c0a",
                "qty": "1.00",
                "description": "Sony Experia",
                "amount": "100",
                "taxAmount": "21.00",
                "taxId": "1",
                "ledgerId": "1"
              }
            ],
            "relation": {
              "id": "665e3dad-9a50-11e8-a137-0a580add1c0a",
              "name": "Kees Kist",
              "address": "Nachtijs 4",
              "zip": "3245 VL",
              "city": "Sommelsdijk"
            }
          }
        ],
        "metadata": {
          "current_page": 1,
          "per_page": 20,
          "page_count": 20,
          "total_count": 40
        }
      },
      "headers": {
        "Content-type": "application/json"
      }
    }
  }
}
